…
As an added benefit, I’ll (hopefully) get to think deeply about literary
and structural patterns in the poems such as word choice, rhyme,
sentence/stanza length, and more.

## Some code

``` r
#### Here's the first fifty lines sorted by line number, stanza number, and section number!
pearl_df
```

    ## # A tibble: 1,213 × 4
    ##    text                                     section stanza line_number
    ##    <chr>                                      <dbl>  <dbl>       <int>
    ##  1 Perle, plesaunte to prynces paye               1      1           1
    ##  2 To clanly clos in golde so clere,              1      1           2
    ##  3 Oute of Oryent, I hardyly saye,                1      1           3
    ##  4 Ne proved I never her precios pere.            1      1           4
    ##  5 So rounde, so reken in uche araye,             1      1           5
    ##  6 So smal, so smothe her sydes were,             1      1           6
    ##  7 Queresoever I jugged gemmes gaye               1      1           7
    ##  8 I sette hyr sengeley in synglure.              1      1           8
    ##  9 Allas, I leste hyr in on erbere;               1      1           9
    ## 10 Thurgh gresse to grounde hit fro me yot.       1      1          10
    ## # ℹ 1,203 more rows
…
